More Data Wrangling
…
BLS_URBN: 1 = urban, 2 = rural

HIGH_EDU: Highest education in the household. 00 = Never attended, 10 = Grades 1-8, 11 = Grades 9-12, no degree, 12 = High school graduate, 13 = Some college, no degree, 14 = Associates degree, 15 = Bachelor’s degree, 16 = Masters, Professional/doctorate degree

TOTEXPCQ = Total household expenditures for the current quarter

IRAX = Total in retirement funds

Wrangling CE Data

ce <- ce %>%
  mutate(YEARLY_EXP = TOTEXPCQ*4)
ce

# A tibble: 6,301 × 8
   NEWID    PRINEARN FINCBTAX BLS_URBN HIGH_EDU TOTEXPCQ    IRAX YEARLY_EXP
   <chr>    <chr>       <dbl>    <dbl> <chr>       <dbl>   <dbl>      <dbl>
 1 03324174 01         116920        1 16              0 1000000          0
 2 03324204 01            200        1 15              0   10000          0
 3 03324214 01         117000        1 16              0       0          0
 4 03324244 01              0        1 15              0      NA          0
 5 03324274 02           2000        1 14              0      NA          0
 6 03324284 01            942        1 11              0       0          0
 7 03324294 01              0        1 10              0       0          0
 8 03324304 01          91000        1 15              0   15000          0
 9 03324324 02          95000        2 15              0      NA          0
10 03324334 01          40037        1 14              0  477000          0
# ℹ 6,291 more rows

Logical Operators

ce_sub <- ce %>%
  filter(YEARLY_EXP > 0, BLS_URBN == 1, HIGH_EDU != "00")
ce_sub

# A tibble: 3,950 × 8
   NEWID    PRINEARN FINCBTAX BLS_URBN HIGH_EDU TOTEXPCQ   IRAX YEARLY_EXP
   <chr>    <chr>       <dbl>    <dbl> <chr>       <dbl>  <dbl>      <dbl>
 1 03335204 01          37000        1 14          2492.      0      9968.
 2 03335214 01         103000        1 16          6128.     NA     24513.
 3 03335224 01          14686        1 13          1072.     NA      4287.
 4 03335244 02          33396        1 12          1630       0      6520 
 5 03335264 01              0        1 13          3213.     NA     12853.
 6 03335274 01              0        1 15          4674.      0     18694.
 7 03335294 01         745136        1 16          8693. 280000     34773.
 8 03335304 01          36000        1 16          3733.     NA     14933.
 9 03335314 02          45000        1 15          3627.   3000     14509 
10 03335334 01          20862        1 13           802.      0      3209.
# ℹ 3,940 more rows

Logical Operators

ce_sub <- ce %>%
  filter(YEARLY_EXP > 0, (BLS_URBN == 1 | HIGH_EDU != "00"))
ce_sub

# A tibble: 4,178 × 8
   NEWID    PRINEARN FINCBTAX BLS_URBN HIGH_EDU TOTEXPCQ   IRAX YEARLY_EXP
   <chr>    <chr>       <dbl>    <dbl> <chr>       <dbl>  <dbl>      <dbl>
 1 03335204 01          37000        1 14          2492.      0      9968.
 2 03335214 01         103000        1 16          6128.     NA     24513.
 3 03335224 01          14686        1 13          1072.     NA      4287.
 4 03335244 02          33396        1 12          1630       0      6520 
 5 03335264 01              0        1 13          3213.     NA     12853.
 6 03335274 01              0        1 15          4674.      0     18694.
 7 03335294 01         745136        1 16          8693. 280000     34773.
 8 03335304 01          36000        1 16          3733.     NA     14933.
 9 03335314 02          45000        1 15          3627.   3000     14509 
10 03335334 01          20862        1 13           802.      0      3209.
# ℹ 4,168 more rows
…
Variable Names

Sometimes datasets come with terrible variable names.

ce <- ce %>%
  rename(INCOME = FINCBTAX)
ce

# A tibble: 6,301 × 9
   NEWID PRINEARN INCOME BLS_URBN HIGH_EDU TOTEXPCQ    IRAX YEARLY_EXP HIGH_EDU2
   <chr> <chr>     <dbl> <chr>       <dbl>    <dbl>   <dbl>      <dbl> <chr>    
 1 0332… 01       116920 Urban          16        0 1000000          0 College …
 2 0332… 01          200 Urban          15        0   10000          0 College …
 3 0332… 01       117000 Urban          16        0       0          0 College …
 4 0332… 01            0 Urban          15        0      NA          0 College …
 5 0332… 02         2000 Urban          14        0      NA          0 College …
 6 0332… 01          942 Urban          11        0       0          0 Less tha…
 7 0332… 01            0 Urban          10        0       0          0 Less tha…
 8 0332… 01        91000 Urban          15        0   15000          0 College …
 9 0332… 02        95000 Rural          15        0      NA          0 College …
10 0332… 01        40037 Urban          14        0  477000          0 College …
# ℹ 6,291 more rows
…
Want to add variables on the principal earner from the member data frame to the household data frame

CE Data

Key variable(s)?

fmli

# A tibble: 6,301 × 5
   NEWID    PRINEARN FINCBTAX BLS_URBN HIGH_EDU
   <chr>    <chr>       <dbl>    <dbl> <chr>   
 1 03324174 01         116920        1 16      
 2 03324204 01            200        1 15      
 3 03324214 01         117000        1 16      
 4 03324244 01              0        1 15      
 5 03324274 02           2000        1 14      
 6 03324284 01            942        1 11      
 7 03324294 01              0        1 10      
 8 03324304 01          91000        1 15      
 9 03324324 02          95000        2 15      
10 03324334 01          40037        1 14      
# ℹ 6,291 more rows

memi

# A tibble: 15,412 × 5
   NEWID    MEMBNO   AGE   SEX EARNTYPE
   <chr>     <dbl> <dbl> <dbl>    <dbl>
 1 03552611      1    58     2        2
 2 03552641      1    54     1        1
 3 03552641      2    49     2       NA
 4 03552651      1    39     2       NA
 5 03552651      2    10     2       NA
 6 03552651      3    32     1       NA
 7 03552651      4     7     1       NA
 8 03552651      5     9     1       NA
 9 03552681      1    38     1        3
10 03552681      2    34     2       NA
# ℹ 15,402 more rows
…
count(memi_small, MEMBNO)

# A tibble: 4 × 2
  MEMBNO     n
   <dbl> <int>
1      1     4
2      2     3
3      3     2
4      4     1

Look at the Possible Joins

left_join(fmli, memi, join_by("NEWID" == "NEWID", "PRINEARN" == "MEMBNO"))

# A tibble: 6,301 × 8
   NEWID    PRINEARN FINCBTAX BLS_URBN HIGH_EDU   AGE   SEX EARNTYPE
   <chr>       <dbl>    <dbl>    <dbl> <chr>    <dbl> <dbl>    <dbl>
 1 03324174        1   116920        1 16          63     1        1
 2 03324204        1      200        1 15          50     1        1
 3 03324214        1   117000        1 16          47     2        1
 4 03324244        1        0        1 15          37     1        1
 5 03324274        2     2000        1 14          20     2        4
 6 03324284        1      942        1 11          63     1       NA
 7 03324294        1        0        1 10          77     2       NA
 8 03324304        1    91000        1 15          37     1        1
 9 03324324        2    95000        2 15          53     2        1
10 03324334        1    40037        1 14          64     2       NA
# ℹ 6,291 more rows

Look at the Possible Joins

inner_join(fmli, memi, join_by("NEWID" == "NEWID", "PRINEARN" == "MEMBNO"))

# A tibble: 6,301 × 8
   NEWID    PRINEARN FINCBTAX BLS_URBN HIGH_EDU   AGE   SEX EARNTYPE
   <chr>       <dbl>    <dbl>    <dbl> <chr>    <dbl> <dbl>    <dbl>
 1 03324174        1   116920        1 16          63     1        1
 2 03324204        1      200        1 15          50     1        1
 3 03324214        1   117000        1 16          47     2        1
 4 03324244        1        0        1 15          37     1        1
 5 03324274        2     2000        1 14          20     2        4
 6 03324284        1      942        1 11          63     1       NA
 7 03324294        1        0        1 10          77     2       NA
 8 03324304        1    91000        1 15          37     1        1
 9 03324324        2    95000        2 15          53     2        1
10 03324334        1    40037        1 14          64     2       NA
# ℹ 6,291 more rows

Why does this give us the same answer as left_join for this situation?

Look at the Possible Joins

full_join(fmli, memi, join_by("NEWID" == "NEWID", "PRINEARN" == "MEMBNO"))

# A tibble: 15,412 × 8
   NEWID    PRINEARN FINCBTAX BLS_URBN HIGH_EDU   AGE   SEX EARNTYPE
   <chr>       <dbl>    <dbl>    <dbl> <chr>    <dbl> <dbl>    <dbl>
 1 03324174        1   116920        1 16          63     1        1
 2 03324204        1      200        1 15          50     1        1
 3 03324214        1   117000        1 16          47     2        1
 4 03324244        1        0        1 15          37     1        1
 5 03324274        2     2000        1 14          20     2        4
 6 03324284        1      942        1 11          63     1       NA
 7 03324294        1        0        1 10          77     2       NA
 8 03324304        1    91000        1 15          37     1        1
 9 03324324        2    95000        2 15          53     2        1
10 03324334        1    40037        1 14          64     2       NA
# ℹ 15,402 more rows
…
