Data Wrangling & Summarization
…
Computing Measures of Center by Groups

Handy dplyr function: group_by()

july_2019_grouped <- group_by(july_2019, Occasion)
july_2019_grouped

# A tibble: 192 × 8
# Groups:   Occasion [2]
   DateTime            Day   Date       Time  Total Westbound Eastbound Occasion
   <chr>               <chr> <date>     <tim> <dbl>     <dbl>     <dbl> <chr>   
 1 07/04/2019 12:00:0… Thur… 2019-07-04 00:00     2         2         0 Fourth …
 2 07/04/2019 12:15:0… Thur… 2019-07-04 00:15     3         3         0 Fourth …
 3 07/04/2019 12:30:0… Thur… 2019-07-04 00:30     2         1         1 Fourth …
 4 07/04/2019 12:45:0… Thur… 2019-07-04 00:45     0         0         0 Fourth …
 5 07/04/2019 01:00:0… Thur… 2019-07-04 01:00     3         2         1 Fourth …
 6 07/04/2019 01:15:0… Thur… 2019-07-04 01:15     2         2         0 Fourth …
 7 07/04/2019 01:30:0… Thur… 2019-07-04 01:30     1         1         0 Fourth …
 8 07/04/2019 01:45:0… Thur… 2019-07-04 01:45     0         0         0 Fourth …
 9 07/04/2019 02:00:0… Thur… 2019-07-04 02:00     0         0         0 Fourth …
10 07/04/2019 02:15:0… Thur… 2019-07-04 02:15     0         0         0 Fourth …
# ℹ 182 more rows
…
[1] "character"

july_2019 <- july_2019 %>%
  mutate(DateTime = mdy_hms(DateTime))
class(july_2019$DateTime)

[1] "POSIXct" "POSIXt" 

select(): Extract variables

dogs %>%
  select(Dog_Name, Dog_Breed)

# A tibble: 3,942 × 2
   Dog_Name       Dog_Breed                 
   <chr>          <chr>                     
 1 Butch          Mixed Breed               
 2 Baxter         Mixed Breed               
 3 Bodhi          Golden Retriever          
 4 Ocean          Pug                       
 5 Coco           Pug                       
 6 Brio           LABRADOODLE               
 7 Jolene Almeida German Shorthaired Pointer
 8 Ruger          Labrador Retriever        
 9 FLASH          Border Collie             
10 Leo            French Bulldog            
# ℹ 3,932 more rows

Motivation for filter()

count(dogs, Dog_Name, sort = TRUE)

# A tibble: 2,332 × 2
   Dog_Name     n
   <chr>    <int>
 1 Luna        41
 2 Charlie     35
 3 Lucy        25
 4 Cooper      23
 5 Rosie       22
 6 Olive       21
 7 Pepper      20
 8 Teddy       19
 9 Coco        18
10 Lola        17
# ℹ 2,322 more rows
…
