Decisions, Decisions
…
`\(H_o: \mu_F - \mu_M = 0\)` 

`\(H_a: \mu_F - \mu_M \neq 0\)` 

--

Need a null distribution for the difference in sample means.

--

**Question**: If I shuffle (permute) the `sex` column and then compute the difference in sample means, what do you expect the difference in sample means to equal?

```
## # A tibble: 333 × 2
##    flipper_length_mm sex   
##                <int> <fct> 
##  1               181 male  
##  2               186 female
##  3               195 female
##  4               193 female
##  5               190 male  
##  6               181 female
##  7               195 male  
##  8               182 female
##  9               191 male  
## 10               198 male  
## # … with 323 more rows
```
…
