Data Summarization and Joins
…
---

## Look at the Possible Joins

```r
left_join(fmli, memi) 
```

```
## Joining, by = "NEWID"
```

```
## # A tibble: 15,412 × 64
##    NEWID    PRINE…¹ FINLW…² FINCB…³ BLS_U…⁴ POPSIZE EDUC_…⁵ EDUCA2 AGE_REF  AGE2
##    <chr>      <int>   <dbl>   <dbl>   <dbl>   <dbl> <chr>    <dbl>   <dbl> <dbl>
##  1 03324174       1  25985.  116920       1       2 16          15      63    50
##  2 03324174       1  25985.  116920       1       2 16          15      63    50
##  3 03324174       1  25985.  116920       1       2 16          15      63    50
##  4 03324174       1  25985.  116920       1       2 16          15      63    50
##  5 03324204       1   6581.     200       1       3 15          15      50    47
##  6 03324204       1   6581.     200       1       3 15          15      50    47
##  7 03324204       1   6581.     200       1       3 15          15      50    47
##  8 03324204       1   6581.     200       1       3 15          15      50    47
##  9 03324204       1   6581.     200       1       3 15          15      50    47
## 10 03324204       1   6581.     200       1       3 15          15      50    47
## # … with 15,402 more rows, 54 more variables: SEX_REF <dbl>, SEX2 <dbl>,
## #   REF_RACE <dbl>, RACE2 <dbl>, HISP_REF <dbl>, HISP2 <dbl>, FAM_TYPE <dbl>,
## #   MARITAL1 <dbl>, REGION <dbl>, SMSASTAT <dbl>, HIGH_EDU <chr>,
## #   EHOUSNGC <dbl>, TOTEXPCQ <dbl>, FOODCQ <dbl>, TRANSCQ <dbl>,
## #   HEALTHCQ <dbl>, ENTERTCQ <dbl>, EDUCACQ <dbl>, TOBACCCQ <dbl>,
## #   STUDFINX <dbl>, IRAX <dbl>, CUTENURE <dbl>, FAM_SIZE <dbl>, VEHQ <dbl>,
## #   ROOMSQ <dbl>, INC_HRS1 <dbl>, INC_HRS2 <dbl>, EARNCOMP <dbl>, …
```
…
]

---

## Look at the Possible Joins

```r
left_join(fmli, memi, by = c("NEWID" = "NEWID",
                             "PRINEARN" = "MEMBNO"))
```

```
## # A tibble: 6,301 × 63
##    NEWID    PRINE…¹ FINLW…² FINCB…³ BLS_U…⁴ POPSIZE EDUC_…⁵ EDUCA2 AGE_REF  AGE2
##    <chr>      <dbl>   <dbl>   <dbl>   <dbl>   <dbl> <chr>    <dbl>   <dbl> <dbl>
##  1 03324174       1  25985.  116920       1       2 16          15      63    50
##  2 03324204       1   6581.     200       1       3 15          15      50    47
##  3 03324214       1  20208.  117000       1       4 16          13      47    46
##  4 03324244       1  18078.       0       1       2 15          NA      37    NA
##  5 03324274       2  20112.    2000       1       2 14          NA      51    NA
##  6 03324284       1  19907.     942       1       2 11          NA      63    NA
##  7 03324294       1  11705.       0       1       1 10          NA      77    NA
##  8 03324304       1  24431.   91000       1       2 13          15      37    36
##  9 03324324       2  42859.   95000       2       5 12          15      51    53
## 10 03324334       1  17481.   40037       1       2 12          14      64    67
## # … with 6,291 more rows, 53 more variables: SEX_REF <dbl>, SEX2 <dbl>,
## #   REF_RACE <dbl>, RACE2 <dbl>, HISP_REF <dbl>, HISP2 <dbl>, FAM_TYPE <dbl>,
## #   MARITAL1 <dbl>, REGION <dbl>, SMSASTAT <dbl>, HIGH_EDU <chr>,
## #   EHOUSNGC <dbl>, TOTEXPCQ <dbl>, FOODCQ <dbl>, TRANSCQ <dbl>,
## #   HEALTHCQ <dbl>, ENTERTCQ <dbl>, EDUCACQ <dbl>, TOBACCCQ <dbl>,
## #   STUDFINX <dbl>, IRAX <dbl>, CUTENURE <dbl>, FAM_SIZE <dbl>, VEHQ <dbl>,
## #   ROOMSQ <dbl>, INC_HRS1 <dbl>, INC_HRS2 <dbl>, EARNCOMP <dbl>, …
```

---

## Look at the Possible Joins

```r
inner_join(fmli, memi, by = c("NEWID" = "NEWID",
                              "PRINEARN" = "MEMBNO"))
```

```
## # A tibble: 6,301 × 63
##    NEWID    PRINE…¹ FINLW…² FINCB…³ BLS_U…⁴ POPSIZE EDUC_…⁵ EDUCA2 AGE_REF  AGE2
##    <chr>      <dbl>   <dbl>   <dbl>   <dbl>   <dbl> <chr>    <dbl>   <dbl> <dbl>
##  1 03324174       1  25985.  116920       1       2 16          15      63    50
##  2 03324204       1   6581.     200       1       3 15          15      50    47
##  3 03324214       1  20208.  117000       1       4 16          13      47    46
##  4 03324244       1  18078.       0       1       2 15          NA      37    NA
##  5 03324274       2  20112.    2000       1       2 14          NA      51    NA
##  6 03324284       1  19907.     942       1       2 11          NA      63    NA
##  7 03324294       1  11705.       0       1       1 10          NA      77    NA
##  8 03324304       1  24431.   91000       1       2 13          15      37    36
##  9 03324324       2  42859.   95000       2       5 12          15      51    53
## 10 03324334       1  17481.   40037       1       2 12          14      64    67
## # … with 6,291 more rows, 53 more variables: SEX_REF <dbl>, SEX2 <dbl>,
## #   REF_RACE <dbl>, RACE2 <dbl>, HISP_REF <dbl>, HISP2 <dbl>, FAM_TYPE <dbl>,
## #   MARITAL1 <dbl>, REGION <dbl>, SMSASTAT <dbl>, HIGH_EDU <chr>,
## #   EHOUSNGC <dbl>, TOTEXPCQ <dbl>, FOODCQ <dbl>, TRANSCQ <dbl>,
## #   HEALTHCQ <dbl>, ENTERTCQ <dbl>, EDUCACQ <dbl>, TOBACCCQ <dbl>,
## #   STUDFINX <dbl>, IRAX <dbl>, CUTENURE <dbl>, FAM_SIZE <dbl>, VEHQ <dbl>,
## #   ROOMSQ <dbl>, INC_HRS1 <dbl>, INC_HRS2 <dbl>, EARNCOMP <dbl>, …
```

* Why does this give us the same answer as `left_join` for this situation?

---

## Look at the Possible Joins

```r
full_join(fmli, memi, by = c("NEWID" = "NEWID",
                             "PRINEARN" = "MEMBNO"))
```

```
## # A tibble: 15,412 × 63
##    NEWID    PRINE…¹ FINLW…² FINCB…³ BLS_U…⁴ POPSIZE EDUC_…⁵ EDUCA2 AGE_REF  AGE2
##    <chr>      <dbl>   <dbl>   <dbl>   <dbl>   <dbl> <chr>    <dbl>   <dbl> <dbl>
##  1 03324174       1  25985.  116920       1       2 16          15      63    50
##  2 03324204       1   6581.     200       1       3 15          15      50    47
##  3 03324214       1  20208.  117000       1       4 16          13      47    46
##  4 03324244       1  18078.       0       1       2 15          NA      37    NA
##  5 03324274       2  20112.    2000       1       2 14          NA      51    NA
##  6 03324284       1  19907.     942       1       2 11          NA      63    NA
##  7 03324294       1  11705.       0       1       1 10          NA      77    NA
##  8 03324304       1  24431.   91000       1       2 13          15      37    36
##  9 03324324       2  42859.   95000       2       5 12          15      51    53
## 10 03324334       1  17481.   40037       1       2 12          14      64    67
## # … with 15,402 more rows, 53 more variables: SEX_REF <dbl>, SEX2 <dbl>,
## #   REF_RACE <dbl>, RACE2 <dbl>, HISP_REF <dbl>, HISP2 <dbl>, FAM_TYPE <dbl>,
## #   MARITAL1 <dbl>, REGION <dbl>, SMSASTAT <dbl>, HIGH_EDU <chr>,
## #   EHOUSNGC <dbl>, TOTEXPCQ <dbl>, FOODCQ <dbl>, TRANSCQ <dbl>,
## #   HEALTHCQ <dbl>, ENTERTCQ <dbl>, EDUCACQ <dbl>, TOBACCCQ <dbl>,
## #   STUDFINX <dbl>, IRAX <dbl>, CUTENURE <dbl>, FAM_SIZE <dbl>, VEHQ <dbl>,
## #   ROOMSQ <dbl>, INC_HRS1 <dbl>, INC_HRS2 <dbl>, EARNCOMP <dbl>, …
```
…
